…
    ## Calculating cluster 12

    ## Calculating cluster 13

    ## Calculating cluster 14

    ## Calculating cluster 15

    ## Calculating cluster 16

``` r
sample1.seurat.markers %>% group_by(cluster) %>% top_n(n=2, wt = avg_logFC)
```

    ## # A tibble: 34 x 7
    ## # Groups:   cluster [17]
    ##        p_val avg_logFC pct.1 pct.2 p_val_adj cluster gene   
    ##        <dbl>     <dbl> <dbl> <dbl>     <dbl> <fct>   <chr>  
    ##  1 0.             2.05 0.612 0.099 0.        0       Il1b   
    ##  2 0.             1.89 0.687 0.147 0.        0       Bcl2a1a
    ##  3 1.62e-206      1.45 0.998 0.501 2.48e-202 1       Retnlg 
    ##  4 1.45e-184      1.11 1     0.499 2.23e-180 1       Stfa2  
    ##  5 7.36e-261      1.71 1     0.501 1.13e-256 2       Retnlg 
    ##  6 5.07e-242      1.40 1     0.436 7.79e-238 2       Stfa3  
    ##  7 2.58e-266      2.02 0.935 0.27  3.96e-262 3       Gzma   
    ##  8 1.90e-246      2.52 0.845 0.225 2.93e-242 3       Ccl5   
    ##  9 0.             2.19 0.99  0.082 0.        4       Tcrg-C1
    ## 10 0.             2.04 0.939 0.134 0.        4       Ly6a   
    ## # … with 24 more rows
…
